…
Since we now have two approaches, a benchmark is needed to compare them speed-wise. We will do it on a larger dataset to be a bit more realistic:

gene_exp <- tibble(
    gene_name = paste0("ENSG0", 1:10000),
    exp = c(rbind(rnorm(5000, mean = 2), rep(0, 5000)))
)

gene_exp
## # A tibble: 10,000 x 2
##    gene_name    exp
##    <chr>      <dbl>
##  1 ENSG01     2.38 
##  2 ENSG02     0    
##  3 ENSG03     1.65 
##  4 ENSG04     0    
##  5 ENSG05    -0.267
##  6 ENSG06     0    
##  7 ENSG07     0.690
##  8 ENSG08     0    
##  9 ENSG09     3.29 
## 10 ENSG010    0    
## # ... with 9,990 more rows
…
